{
  "name": "Gigalith",
  "nationalPokedexNumber": 526,
  "primaryType": "rock",
  "abilities": [
    "sturdy",
    "sandstream",
    "h:sandforce"
  ],
  "baseStats": {
    "hp": 85,
    "attack": 135,
    "defence": 130,
    "special_attack": 60,
    "special_defence": 80,
    "speed": 25
  },
  "catchRate": 45,
  "maleRatio": 0.5,
  "shoulderMountable": false,
  "baseExperienceYield": 258,
  "experienceGroup": "medium_slow",
  "eggCycles": 15,
  "eggGroups": [
    "mineral"
  ],
  "moves": [
    "1:harden",
    "1:powergem",
    "1:sandattack",
    "1:stealthrock",
    "1:tackle",
    "12:mudslap",
    "16:smackdown",
    "20:irondefense",
    "24:headbutt",
    "30:rockslide",
    "36:rockblast",
    "42:sandstorm",
    "48:stoneedge",
    "54:explosion",
    "tm:attract",
    "tm:bodypress",
    "tm:bulldoze",
    "tm:confide",
    "tm:doubleteam",
    "tm:earthpower",
    "tm:earthquake",
    "tm:endure",
    "tm:explosion",
    "tm:facade",
    "tm:flashcannon",
    "tm:frustration",
    "tm:gigaimpact",
    "tm:heavyslam",
    "tm:hiddenpower",
    "tm:hyperbeam",
    "tm:irondefense",
    "tm:ironhead",
    "tm:naturepower",
    "tm:powergem",
    "tm:protect",
    "tm:rest",
    "tm:return",
    "tm:rockblast",
    "tm:rockpolish",
    "tm:rockslide",
    "tm:rocksmash",
    "tm:rocktomb",
    "tm:round",
    "tm:sandstorm",
    "tm:sandtomb",
    "tm:secretpower",
    "tm:selfdestruct",
    "tm:sleeptalk",
    "tm:smackdown",
    "tm:snore",
    "tm:solarbeam",
    "tm:stealthrock",
    "tm:stompingtantrum",
    "tm:stoneedge",
    "tm:strength",
    "tm:substitute",
    "tm:superpower",
    "tm:swagger",
    "tm:throatchop",
    "tm:toxic",
    "tm:weatherball",
    "tutor:block",
    "tutor:earthpower",
    "tutor:gravity",
    "tutor:irondefense",
    "tutor:ironhead",
    "tutor:laserfocus",
    "tutor:meteorbeam",
    "tutor:sleeptalk",
    "tutor:snore",
    "tutor:stealthrock",
    "tutor:stompingtantrum",
    "tutor:superpower",
    "tutor:throatchop"
  ],
  "labels": [
    "gen5"
  ],
  "pokedex": [
    "cobblemon.species.gigalith.desc"
  ],
  "preEvolution": "boldore",
  "evolutions": [],
  "baseScale": 1,
  "hitbox": {
    "width": 1,
    "height": 1,
    "fixed": false
  },
  "baseFriendship": 50,
  "evYield": {
    "hp": 0,
    "attack": 3,
    "defence": 0,
    "special_attack": 0,
    "special_defence": 0,
    "speed": 0
  },
  "height": 17,
  "weight": 2600,
  "aspects": [],
  "cannotDynamax": false
}