{
  "implemented": true,
  "name": "Baltoy",
  "nationalPokedexNumber": 343,
  "primaryType": "ground",
  "secondaryType": "psychic",
  "abilities": [
    "levitate"
  ],
  "baseStats": {
    "hp": 40,
    "attack": 40,
    "defence": 55,
    "special_attack": 40,
    "special_defence": 70,
    "speed": 55
  },
  "catchRate": 255,
  "maleRatio": -1,
  "shoulderMountable": false,
  "baseExperienceYield": 60,
  "experienceGroup": "medium_fast",
  "eggCycles": 20,
  "eggGroups": [
    "mineral"
  ],
  "drops": {
    "amount": "2",
    "entries": [
      {
        "item": "minecraft:clay_ball",
        "percentage": 50
      },
      {
        "item": "cobblemon:light_clay",
        "percentage": 2.5
      }
    ]
  },
  "moves": [
    "1:harden",
    "1:mudslap",
    "3:rapidspin",
    "6:confusion",
    "9:rocktomb",
    "10:healblock",
    "12:powertrick",
    "15:psybeam",
    "18:ancientpower",
    "21:imprison",
    "24:cosmicpower",
    "27:extrasensory",
    "30:earthpower",
    "33:selfdestruct",
    "36:guardsplit",
    "36:powersplit",
    "39:sandstorm",
    "42:explosion",
    "tm:allyswitch",
    "tm:bulldoze",
    "tm:calmmind",
    "tm:chargebeam",
    "tm:confide",
    "tm:cosmicpower",
    "tm:dazzlinggleam",
    "tm:dig",
    "tm:doubleteam",
    "tm:dreameater",
    "tm:drillrun",
    "tm:earthpower",
    "tm:earthquake",
    "tm:eerieimpulse",
    "tm:endure",
    "tm:explosion",
    "tm:facade",
    "tm:flash",
    "tm:frustration",
    "tm:grassknot",
    "tm:guardswap",
    "tm:gyroball",
    "tm:hex",
    "tm:hiddenpower",
    "tm:icebeam",
    "tm:imprison",
    "tm:lightscreen",
    "tm:naturalgift",
    "tm:powerswap",
    "tm:protect",
    "tm:psychic",
    "tm:psychicterrain",
    "tm:psychup",
    "tm:psyshock",
    "tm:raindance",
    "tm:recycle",
    "tm:reflect",
    "tm:rest",
    "tm:return",
    "tm:rockpolish",
    "tm:rockslide",
    "tm:rocktomb",
    "tm:round",
    "tm:safeguard",
    "tm:sandstorm",
    "tm:sandtomb",
    "tm:secretpower",
    "tm:selfdestruct",
    "tm:shadowball",
    "tm:skillswap",
    "tm:sleeptalk",
    "tm:smackdown",
    "tm:snore",
    "tm:solarbeam",
    "tm:stealthrock",
    "tm:substitute",
    "tm:sunnyday",
    "tm:swagger",
    "tm:telekinesis",
    "tm:toxic",
    "tm:trick",
    "tm:trickroom",
    "tm:wonderroom",
    "tm:zenheadbutt",
    "tutor:allyswitch",
    "tutor:ancientpower",
    "tutor:doubleedge",
    "tutor:dreameater",
    "tutor:drillrun",
    "tutor:earthpower",
    "tutor:endure",
    "tutor:expandingforce",
    "tutor:explosion",
    "tutor:gravity",
    "tutor:headbutt",
    "tutor:magiccoat",
    "tutor:mimic",
    "tutor:mudslap",
    "tutor:psybeam",
    "tutor:psychup",
    "tutor:rapidspin",
    "tutor:recycle",
    "tutor:refresh",
    "tutor:rockslide",
    "tutor:rocktomb",
    "tutor:scorchingsands",
    "tutor:selfdestruct",
    "tutor:signalbeam",
    "tutor:skillswap",
    "tutor:sleeptalk",
    "tutor:snore",
    "tutor:stealthrock",
    "tutor:substitute",
    "tutor:swagger",
    "tutor:telekinesis",
    "tutor:trick",
    "tutor:wonderroom",
    "tutor:zenheadbutt"
  ],
  "labels": [
    "gen3"
  ],
  "pokedex": [
    "cobblemon.species.baltoy.desc"
  ],
  "evolutions": [
    {
      "id": "baltoy_claydol",
      "variant": "level_up",
      "result": "claydol",
      "consumeHeldItem": false,
      "learnableMoves": [
        "hyperbeam"
      ],
      "requirements": [
        {
          "variant": "level",
          "minLevel": 36
        }
      ]
    }
  ],
  "baseScale": 1,
  "hitbox": {
    "width": 1,
    "height": 1,
    "fixed": false
  },
  "baseFriendship": 50,
  "evYield": {
    "hp": 0,
    "attack": 0,
    "defence": 0,
    "special_attack": 0,
    "special_defence": 1,
    "speed": 0
  },
  "height": 5,
  "weight": 215,
  "aspects": [],
  "cannotDynamax": false
}